a:14:{i:0;a:3:{i:0;s:14:"document_start";i:1;a:0:{}i:2;i:0;}i:1;a:3:{i:0;s:6:"header";i:1;a:3:{i:0;s:21:"批次匯入使用者";i:1;i:2;i:2;i:1;}i:2;i:1;}i:2;a:3:{i:0;s:12:"section_open";i:1;a:1:{i:0;i:2;}i:2;i:1;}i:3;a:3:{i:0;s:6:"p_open";i:1;a:0:{}i:2;i:1;}i:4;a:3:{i:0;s:5:"cdata";i:1;a:1:{i:0;s:218:"需提供 CSV 格式的使用者列表檔案（UTF-8 編碼）。
每列至少 4 欄，依序為：帳號、姓名、電郵、群組。
各欄以半形逗號 (,) 分隔，有半形逗號的字串可用半形雙引號 (";}i:2;i:36;}i:5;a:3:{i:0;s:18:"doublequoteclosing";i:1;a:0:{}i:2;i:254;}i:6;a:3:{i:0;s:18:"doublequoteclosing";i:1;a:0:{}i:2;i:255;}i:7;a:3:{i:0;s:5:"cdata";i:1;a:1:{i:0;s:159:") 分開，引號可用反斜線 (\) 跳脫。
重複的使用者帳號會自動忽略。
如需要範例檔案，可用上面的「匯出使用者」取得。";}i:2;i:256;}i:8;a:3:{i:0;s:7:"p_close";i:1;a:0:{}i:2;i:415;}i:9;a:3:{i:0;s:6:"p_open";i:1;a:0:{}i:2;i:415;}i:10;a:3:{i:0;s:5:"cdata";i:1;a:1:{i:0;s:66:"系統會為成功匯入的使用者產生密碼並寄信通知。";}i:2;i:417;}i:11;a:3:{i:0;s:7:"p_close";i:1;a:0:{}i:2;i:483;}i:12;a:3:{i:0;s:13:"section_close";i:1;a:0:{}i:2;i:484;}i:13;a:3:{i:0;s:12:"document_end";i:1;a:0:{}i:2;i:484;}}